…
## What does a scatter plot of ideal data for the linear model look like?

To answer this question, a simulated data is made.

``` r
library(GlmSimulatoR)
library(ggplot2)

set.seed(1)
simdata <- simulate_gaussian(N = 1000, weights = 5, xrange = 1, ancillary = 1) #GlmSimulatoR function
simdata %>% 
  print()
#> # A tibble: 1,000 x 2
#>        Y    X1
#>    <dbl> <dbl>
#>  1 11.4   1.27
#>  2 11.6   1.37
#>  3 11.7   1.57
#>  4 14.6   1.91
#>  5 12.0   1.20
#>  6 16.1   1.90
#>  7 13.4   1.94
#>  8 13.1   1.66
#>  9 14.3   1.63
#> 10  9.19  1.06
#> # ... with 990 more rows
```
…
